@startuml

title Calls in the "fwd" Flow

autonumber 1
note over PackedMsgEndpointHandler #ffffff: handleAgentMsgReq( ) -- Packed msg\narrives.
PackedMsgEndpointHandler --> PackedMsgEndpointHandler
note over PackedMsgEndpointHandler #ffffff: handleAgentMsgReqForOctetStreamContentType( )\n-- Detect binary content.
PackedMsgEndpointHandler --> PackedMsgEndpointHandler
note over PackedMsgEndpointHandler #ffffff: processPackedMsg( ) -- Decrypt and check\nmessage type.
PackedMsgEndpointHandler -> AgencyPackedMsgHandler
note over AgencyPackedMsgHandler #ffffff: handleFwdMsg( ) -- Called after seeing\n"Forward" in plaintext.
AgencyPackedMsgHandler -> AgentMsgRouter
note over AgentMsgRouter #ffffff: routePackedMsg( ) -- Find route to\nrelevant actor, send inner msg.
AgentMsgRouter --> AgentMsgRouter
note over AgentMsgRouter #ffffff: executeCmd( ) -- trigger routing for\npacked messages.
AgentMsgRouter -> AgentIncomingMsgHandler
note over AgentIncomingMsgHandler #ffffff: agentIncomingCommonCmdReceiver( ) --\nReceived by agent actor.
AgentIncomingMsgHandler -> AgentMsgProcessor
note over AgentMsgProcessor #ffffff: handleProcessPackedMsg( ) -- Receive and\ndecrypt.

group 100: edge
autonumber 101
AgentMsgProcessor --> AgentMsgProcessor
note over AgentMsgProcessor #ffffff: routingMsgHandler( ) -- store outgoing\nmsg.
AgentMsgProcessor -> UserAgentCommon
note over UserAgentCommon #ffffff: sendAgentMsgToRegisteredEndpoint( ) --\nQueue msg for delivery to edge.
end

@enduml
